{
    "baseUrl": "https://localhost:4443",
    "integrationFolder": "tests",
    "testFiles": "**/*.js",
    "video": true,
    "videosFolder": "tests/videos",
    "screenshotsFolder": "tests/screenshots",
    "nodeVersion": "system",
    "env": {
      "cypress-movie": {
        "enabled": true,
        "cursorTracking": {
          "enabled": false,
          "shape": "dot"
        },
        "width": 1920,
        "height": 640
      }
    }
  }